ID,name,details,subTasks,deadline
18,Reminder_47,Details_92,[],02/06/2020
19,Reminder_71,Details_77,[92 13 6 55],02/06/2020
20,Reminder_28,Details_96,[],02/06/2020
21,Reminder_70,Details_34,[40 53 7 41 56 71 86 61],02/06/2020
22,Reminder_92,Details_69,[78 39 29 83 96 90],02/06/2020
23,Reminder_00,Details_95,[],02/06/2020
24,Reminder_27,Details_75,[96 24 93 80 42 80 78 55],02/06/2020
25,Reminder_29,Details_41,[98 38 2 59 84 51 5],02/06/2020
48,Reminder_14,Details_48,[41 86],02/06/2020
49,Reminder_27,Details_19,[],02/06/2020
50,Reminder_49,Details_32,[79 60 61 37 42 87 66 65],02/06/2020
51,Reminder_17,Details_12,[],02/06/2020
52,Reminder_76,Details_33,[73 19 63 26 93 3 2],02/06/2020
53,Reminder_99,Details_01,[38 30 52 15 75 73],02/06/2020
54,Reminder_42,Details_36,[59 81 33 4 38 3 47],02/06/2020
55,Reminder_81,Details_56,[23 16 78 44 98 42],02/06/2020
72,Reminder_63,Details_49,[52 37 96 96 68 64 12 26],02/06/2020
73,Reminder_26,Details_31,[54],02/06/2020
74,Reminder_19,Details_30,[],02/06/2020
75,Reminder_90,Details_61,[56 79],02/06/2020
76,Reminder_90,Details_28,[1 58 38 35 21 14 48],02/06/2020
77,Reminder_78,Details_72,[75 66 91 4 5 90 90 90 28],02/06/2020
78,Reminder_41,Details_32,[64 16 25 32 31 20 95 7],02/06/2020
79,Reminder_90,Details_10,[20 30],02/06/2020
160,Reminder_44,Details_24,[14 90 40 49 38 5],03/06/2020
161,Reminder_34,Details_60,[85],03/06/2020
162,Reminder_50,Details_60,[13],03/06/2020
163,Reminder_55,Details_42,[33 73],03/06/2020
164,Reminder_08,Details_25,[67 88 9 32 94 84],03/06/2020
165,Reminder_82,Details_13,[55 32 68 77 29 58 93],03/06/2020
166,Reminder_81,Details_89,[8 52 44 3 98],03/06/2020
167,Reminder_99,Details_96,[53 67 47 46 0 39],03/06/2020
