ID,name,details,startDate,interval,endDate
9,Reminder_63,Details_31,04/05/2020,PT588H,14/08/2020
10,Reminder_10,Details_11,18/04/2020,PT444H,23/06/2020
11,Reminder_24,Details_66,14/04/2020,PT948H,05/09/2020
12,Reminder_48,Details_23,17/04/2020,PT1116H,11/07/2020
13,Reminder_94,Details_92,10/05/2020,PT984H,10/06/2020
14,Reminder_26,Details_26,28/05/2020,PT744H,06/08/2020
15,Reminder_47,Details_16,03/03/2020,PT768H,27/06/2020
16,Reminder_61,Details_30,28/04/2020,PT288H,17/06/2020
29,Reminder_12,Details_45,02/05/2020,PT144H,08/08/2020
30,Reminder_07,Details_10,12/03/2020,PT1152H,06/06/2020
31,Reminder_80,Details_03,20/04/2020,PT456H,02/07/2020
32,Reminder_57,Details_62,03/04/2020,PT312H,21/07/2020
33,Reminder_41,Details_20,05/03/2020,PT1044H,09/08/2020
34,Reminder_70,Details_29,30/04/2020,PT828H,07/08/2020
35,Reminder_31,Details_58,21/03/2020,PT468H,14/08/2020
36,Reminder_56,Details_55,06/05/2020,PT612H,17/06/2020
45,Reminder_09,Details_42,19/04/2020,PT684H,06/06/2020
46,Reminder_09,Details_33,20/04/2020,PT0S,05/06/2020
47,Reminder_55,Details_94,11/05/2020,PT816H,23/07/2020
48,Reminder_33,Details_30,27/04/2020,PT660H,07/08/2020
49,Reminder_65,Details_98,21/04/2020,PT360H,08/06/2020
50,Reminder_62,Details_79,09/03/2020,PT312H,05/07/2020
51,Reminder_37,Details_94,14/04/2020,PT72H,26/08/2020
52,Reminder_11,Details_17,06/04/2020,PT108H,02/08/2020
61,Reminder_06,Details_18,05/05/2020,PT1008H,21/06/2020
62,Reminder_11,Details_31,09/04/2020,PT744H,04/07/2020
63,Reminder_79,Details_18,06/04/2020,PT432H,08/07/2020
64,Reminder_78,Details_57,30/03/2020,PT276H,08/09/2020
65,Reminder_54,Details_78,21/03/2020,PT948H,08/07/2020
66,Reminder_67,Details_63,22/03/2020,PT1128H,09/06/2020
67,Reminder_52,Details_18,24/04/2020,PT180H,04/08/2020
68,Reminder_81,Details_58,21/03/2020,PT732H,07/09/2020
37,Reminder_57,Details_09,20/04/2020,PT1128H,11/07/2020
38,Reminder_04,Details_85,10/04/2020,PT432H,08/08/2020
39,Reminder_51,Details_00,27/04/2020,PT1152H,10/07/2020
40,Reminder_55,Details_24,31/03/2020,PT936H,30/08/2020
41,Reminder_79,Details_97,17/03/2020,PT1116H,26/08/2020
0,Reminder_95,Details_03,10/03/2020,PT120H,24/06/2020
1,Reminder_00,Details_59,08/05/2020,PT204H,08/07/2020
2,Reminder_93,Details_31,22/05/2020,PT996H,31/07/2020
3,Reminder_40,Details_97,29/03/2020,PT552H,13/06/2020
4,Reminder_02,Details_10,08/05/2020,PT900H,08/06/2020
5,Reminder_95,Details_85,22/04/2020,PT300H,09/08/2020
6,Reminder_07,Details_72,18/03/2020,PT36H,01/07/2020
7,Reminder_63,Details_76,17/04/2020,PT372H,16/07/2020
53,Reminder_80,Details_93,06/03/2020,PT216H,19/06/2020
54,Reminder_41,Details_19,03/03/2020,PT48H,05/08/2020
