ID,name,details,date,time,address,guests
2,Meeting_33,Details_46,18/06/2020,22:30,Address_38,[42 28 8 15 7 71 79]
3,Meeting_92,Details_41,15/06/2020,18:30,Address_46,[21 23 21 88 60]
4,Meeting_87,Details_00,02/07/2020,00:30,Address_95,[64 37 51 10 41 66 98 33 99]
5,Meeting_29,Details_70,25/08/2020,00:30,Address_67,[16 8 71 67 52 69]
6,Meeting_01,Details_20,04/08/2020,06:30,Address_80,[90 63 30 53 38 95]
7,Meeting_78,Details_94,10/09/2020,00:30,Address_86,[53 57 61 86 89 28]
8,Meeting_32,Details_01,08/07/2020,23:30,Address_26,[52 3 41 21 17]
9,Meeting_21,Details_56,03/07/2020,12:30,Address_32,[47 94 37 93 9 7 50 19]
